\relax 
\providecommand\babel@aux[2]{}
\@nameuse{bbl@beforestart}
\catcode `"\active 
\babel@aux{russian}{}
\@writefile{toc}{\contentsline {section}{\numberline {1}Непрерывные дроби.}{3}{}\protected@file@percent }
\@writefile{toc}{\contentsline {subsection}{\numberline {1.1}Квадратичные иррациональности.}{3}{}\protected@file@percent }
\@writefile{toc}{\contentsline {section}{\numberline {2}Диафантово уравнение Пелля.}{4}{}\protected@file@percent }
\@writefile{toc}{\contentsline {subsection}{\numberline {2.1}Нахождение минимального нетривиального решения. PQ - алгоритм.}{4}{}\protected@file@percent }
\gdef \@abspage@last{4}
