\babel@toc {russian}{}\relax 
\contentsline {section}{\numberline {1}Непрерывные дроби.}{3}{}%
\contentsline {subsection}{\numberline {1.1}Квадратичные иррациональности.}{3}{}%
\contentsline {section}{\numberline {2}Диафантово уравнение Пелля.}{4}{}%
\contentsline {subsection}{\numberline {2.1}Нахождение минимального нетривиального решения. PQ - алгоритм.}{4}{}%
