\relax 
\@writefile{toc}{\contentsline {section}{\numberline {1}Continued fractions.}{3}{}\protected@file@percent }
\@writefile{toc}{\contentsline {subsection}{\numberline {1.1}Quadratic irrationalities.}{3}{}\protected@file@percent }
\@writefile{toc}{\contentsline {section}{\numberline {2}Pell's Diaphantine equation.}{4}{}\protected@file@percent }
\@writefile{toc}{\contentsline {subsection}{\numberline {2.1}Finding a minimal nontrivial solution. PQ - algorithm.}{4}{}\protected@file@percent }
\gdef \@abspage@last{4}
